2020.02.04.20.00.45 : INSTRUCTION: 53190688
2020.02.04.20.00.45 : MASK: -67108864
2020.02.04.20.00.45 : OPCODE: 0
2020.02.04.20.00.45 : INSTRUCTION: -1930887148
2020.02.04.20.00.45 : MASK: -67108864
2020.02.04.20.00.45 : OPCODE: -1946157056
2020.02.04.20.00.45 : INSTRUCTION: 313065475
2020.02.04.20.00.45 : MASK: -67108864
2020.02.04.20.00.45 : OPCODE: 268435456
2020.02.04.20.00.45 : INSTRUCTION: 36546594
2020.02.04.20.00.45 : MASK: -67108864
2020.02.04.20.00.45 : OPCODE: 0
2020.02.04.20.00.45 : INSTRUCTION: -1380777952
2020.02.04.20.00.45 : MASK: -67108864
2020.02.04.20.00.45 : OPCODE: -1409286144
2020.02.04.20.00.45 : INSTRUCTION: 40466468
2020.02.04.20.00.45 : MASK: -67108864
2020.02.04.20.00.45 : OPCODE: 0
2020.02.04.20.00.45 : INSTRUCTION: -1366294540
2020.02.04.20.00.45 : MASK: -67108864
2020.02.04.20.00.45 : OPCODE: -1409286144
2020.02.04.20.00.45 : INSTRUCTION: 25976864
2020.02.04.20.00.45 : MASK: -67108864
2020.02.04.20.00.45 : OPCODE: 0
2020.02.04.20.00.45 : INSTRUCTION: 44345381
2020.02.04.20.00.45 : MASK: -67108864
2020.02.04.20.00.45 : OPCODE: 0
2020.02.04.20.00.45 : INSTRUCTION: 361758711
2020.02.04.20.00.45 : MASK: -67108864
2020.02.04.20.00.45 : OPCODE: 335544320
2020.02.04.20.00.45 : INSTRUCTION: -1899102224
2020.02.04.20.00.45 : MASK: -67108864
2020.02.04.20.00.45 : OPCODE: -1946157056
2020.02.04.20.11.19 : INSTRUCTION: 11001010111010000000100000
2020.02.04.20.11.19 : MASK: 11111100000000000000000000000000
2020.02.04.20.11.19 : OPCODE: 0
2020.02.04.20.11.19 : INSTRUCTION: 10001100111010010000000000010100
2020.02.04.20.11.19 : MASK: 11111100000000000000000000000000
2020.02.04.20.11.19 : OPCODE: 10001100000000000000000000000000
2020.02.04.20.11.19 : INSTRUCTION: 10010101010010000000000000011
2020.02.04.20.11.19 : MASK: 11111100000000000000000000000000
2020.02.04.20.11.19 : OPCODE: 10000000000000000000000000000
2020.02.04.20.11.19 : INSTRUCTION: 10001011011010100000100010
2020.02.04.20.11.19 : MASK: 11111100000000000000000000000000
2020.02.04.20.11.19 : OPCODE: 0
2020.02.04.20.11.19 : INSTRUCTION: 10101101101100110000000000100000
2020.02.04.20.11.19 : MASK: 11111100000000000000000000000000
2020.02.04.20.11.19 : OPCODE: 10101100000000000000000000000000
2020.02.04.20.11.19 : INSTRUCTION: 10011010010111100000100100
2020.02.04.20.11.19 : MASK: 11111100000000000000000000000000
2020.02.04.20.11.19 : OPCODE: 0
2020.02.04.20.11.19 : INSTRUCTION: 10101110100011111111111111110100
2020.02.04.20.11.19 : MASK: 11111100000000000000000000000000
2020.02.04.20.11.19 : OPCODE: 10101100000000000000000000000000
2020.02.04.20.11.19 : INSTRUCTION: 1100011000110000000100000
2020.02.04.20.11.19 : MASK: 11111100000000000000000000000000
2020.02.04.20.11.19 : OPCODE: 0
2020.02.04.20.11.19 : INSTRUCTION: 10101001001010100000100101
2020.02.04.20.11.19 : MASK: 11111100000000000000000000000000
2020.02.04.20.11.19 : OPCODE: 0
2020.02.04.20.11.19 : INSTRUCTION: 10101100011111111111111110111
2020.02.04.20.11.19 : MASK: 11111100000000000000000000000000
2020.02.04.20.11.19 : OPCODE: 10100000000000000000000000000
2020.02.04.20.11.19 : INSTRUCTION: 10001110110011011111111111110000
2020.02.04.20.11.19 : MASK: 11111100000000000000000000000000
2020.02.04.20.11.19 : OPCODE: 10001100000000000000000000000000
2020.02.04.20.15.56 : INSTRUCTION: 11001010111010000000100000
2020.02.04.20.15.56 : MASK: 11111100000000000000000000000000
2020.02.04.20.15.56 : OPCODE: 0
2020.02.04.20.15.56 : INSTRUCTION: 10001100111010010000000000010100
2020.02.04.20.15.56 : MASK: 11111100000000000000000000000000
2020.02.04.20.15.56 : OPCODE: 10001100000000000000000000000000
2020.02.04.20.15.56 : INSTRUCTION: 10010101010010000000000000011
2020.02.04.20.15.56 : MASK: 11111100000000000000000000000000
2020.02.04.20.15.56 : OPCODE: 10000000000000000000000000000
2020.02.04.20.15.56 : INSTRUCTION: 10001011011010100000100010
2020.02.04.20.15.56 : MASK: 11111100000000000000000000000000
2020.02.04.20.15.56 : OPCODE: 0
2020.02.04.20.15.56 : INSTRUCTION: 10101101101100110000000000100000
2020.02.04.20.15.56 : MASK: 11111100000000000000000000000000
2020.02.04.20.15.56 : OPCODE: 10101100000000000000000000000000
2020.02.04.20.15.56 : INSTRUCTION: 10011010010111100000100100
2020.02.04.20.15.56 : MASK: 11111100000000000000000000000000
2020.02.04.20.15.56 : OPCODE: 0
2020.02.04.20.15.56 : INSTRUCTION: 10101110100011111111111111110100
2020.02.04.20.15.56 : MASK: 11111100000000000000000000000000
2020.02.04.20.15.56 : OPCODE: 10101100000000000000000000000000
2020.02.04.20.15.56 : INSTRUCTION: 1100011000110000000100000
2020.02.04.20.15.56 : MASK: 11111100000000000000000000000000
2020.02.04.20.15.56 : OPCODE: 0
2020.02.04.20.15.56 : INSTRUCTION: 10101001001010100000100101
2020.02.04.20.15.56 : MASK: 11111100000000000000000000000000
2020.02.04.20.15.56 : OPCODE: 0
2020.02.04.20.15.56 : INSTRUCTION: 10101100011111111111111110111
2020.02.04.20.15.56 : MASK: 11111100000000000000000000000000
2020.02.04.20.15.56 : OPCODE: 10100000000000000000000000000
2020.02.04.20.15.56 : INSTRUCTION: 10001110110011011111111111110000
2020.02.04.20.15.56 : MASK: 11111100000000000000000000000000
2020.02.04.20.15.56 : OPCODE: 10001100000000000000000000000000
2020.02.04.20.16.31 : INSTRUCTION: 11001010111010000000100000
2020.02.04.20.16.31 : MASK: 11111100000000000000000000000000
2020.02.04.20.16.31 : OPCODE: 0
2020.02.04.20.16.31 : INSTRUCTION: 10001100111010010000000000010100
2020.02.04.20.16.31 : MASK: 11111100000000000000000000000000
2020.02.04.20.16.31 : OPCODE: 10001100000000000000000000000000
2020.02.04.20.16.31 : INSTRUCTION: 10010101010010000000000000011
2020.02.04.20.16.31 : MASK: 11111100000000000000000000000000
2020.02.04.20.16.31 : OPCODE: 10000000000000000000000000000
2020.02.04.20.16.31 : INSTRUCTION: 10001011011010100000100010
2020.02.04.20.16.31 : MASK: 11111100000000000000000000000000
2020.02.04.20.16.31 : OPCODE: 0
2020.02.04.20.16.31 : INSTRUCTION: 10101101101100110000000000100000
2020.02.04.20.16.31 : MASK: 11111100000000000000000000000000
2020.02.04.20.16.31 : OPCODE: 10101100000000000000000000000000
2020.02.04.20.16.31 : INSTRUCTION: 10011010010111100000100100
2020.02.04.20.16.31 : MASK: 11111100000000000000000000000000
2020.02.04.20.16.31 : OPCODE: 0
2020.02.04.20.16.31 : INSTRUCTION: 10101110100011111111111111110100
2020.02.04.20.16.31 : MASK: 11111100000000000000000000000000
2020.02.04.20.16.31 : OPCODE: 10101100000000000000000000000000
2020.02.04.20.16.31 : INSTRUCTION: 1100011000110000000100000
2020.02.04.20.16.31 : MASK: 11111100000000000000000000000000
2020.02.04.20.16.31 : OPCODE: 0
2020.02.04.20.16.31 : INSTRUCTION: 10101001001010100000100101
2020.02.04.20.16.31 : MASK: 11111100000000000000000000000000
2020.02.04.20.16.31 : OPCODE: 0
2020.02.04.20.16.31 : INSTRUCTION: 10101100011111111111111110111
2020.02.04.20.16.31 : MASK: 11111100000000000000000000000000
2020.02.04.20.16.31 : OPCODE: 10100000000000000000000000000
2020.02.04.20.16.31 : INSTRUCTION: 10001110110011011111111111110000
2020.02.04.20.16.31 : MASK: 11111100000000000000000000000000
2020.02.04.20.16.31 : OPCODE: 10001100000000000000000000000000
2020.02.04.20.18.01 : INSTRUCTION: 11001010111010000000100000
2020.02.04.20.18.01 : MASK: 11111100000000000000000000000000
2020.02.04.20.18.01 : OPCODE: 0
2020.02.04.20.18.01 : INSTRUCTION: 10001100111010010000000000010100
2020.02.04.20.18.01 : MASK: 11111100000000000000000000000000
2020.02.04.20.18.01 : OPCODE: 10001100000000000000000000000000
2020.02.04.20.18.01 : INSTRUCTION: 10010101010010000000000000011
2020.02.04.20.18.01 : MASK: 11111100000000000000000000000000
2020.02.04.20.18.01 : OPCODE: 10000000000000000000000000000
2020.02.04.20.18.01 : INSTRUCTION: 10001011011010100000100010
2020.02.04.20.18.01 : MASK: 11111100000000000000000000000000
2020.02.04.20.18.01 : OPCODE: 0
2020.02.04.20.18.01 : INSTRUCTION: 10101101101100110000000000100000
2020.02.04.20.18.01 : MASK: 11111100000000000000000000000000
2020.02.04.20.18.01 : OPCODE: 10101100000000000000000000000000
2020.02.04.20.18.01 : INSTRUCTION: 10011010010111100000100100
2020.02.04.20.18.01 : MASK: 11111100000000000000000000000000
2020.02.04.20.18.01 : OPCODE: 0
2020.02.04.20.18.01 : INSTRUCTION: 10101110100011111111111111110100
2020.02.04.20.18.01 : MASK: 11111100000000000000000000000000
2020.02.04.20.18.01 : OPCODE: 10101100000000000000000000000000
2020.02.04.20.18.01 : INSTRUCTION: 1100011000110000000100000
2020.02.04.20.18.01 : MASK: 11111100000000000000000000000000
2020.02.04.20.18.01 : OPCODE: 0
2020.02.04.20.18.01 : INSTRUCTION: 10101001001010100000100101
2020.02.04.20.18.01 : MASK: 11111100000000000000000000000000
2020.02.04.20.18.01 : OPCODE: 0
2020.02.04.20.18.01 : INSTRUCTION: 10101100011111111111111110111
2020.02.04.20.18.01 : MASK: 11111100000000000000000000000000
2020.02.04.20.18.01 : OPCODE: 10100000000000000000000000000
2020.02.04.20.18.01 : INSTRUCTION: 10001110110011011111111111110000
2020.02.04.20.18.01 : MASK: 11111100000000000000000000000000
2020.02.04.20.18.01 : OPCODE: 10001100000000000000000000000000
2020.02.04.20.19.04 : INSTRUCTION: 11001010111010000000100000
2020.02.04.20.19.04 : MASK: 11111100000000000000000000000000
2020.02.04.20.19.04 : OPCODE: 0
2020.02.04.20.19.04 : INSTRUCTION: 10001100111010010000000000010100
2020.02.04.20.19.04 : MASK: 11111100000000000000000000000000
2020.02.04.20.19.04 : OPCODE: 10001100000000000000000000000000
2020.02.04.20.19.04 : INSTRUCTION: 10010101010010000000000000011
2020.02.04.20.19.04 : MASK: 11111100000000000000000000000000
2020.02.04.20.19.04 : OPCODE: 10000000000000000000000000000
2020.02.04.20.19.04 : INSTRUCTION: 10001011011010100000100010
2020.02.04.20.19.04 : MASK: 11111100000000000000000000000000
2020.02.04.20.19.04 : OPCODE: 0
2020.02.04.20.19.04 : INSTRUCTION: 10101101101100110000000000100000
2020.02.04.20.19.04 : MASK: 11111100000000000000000000000000
2020.02.04.20.19.04 : OPCODE: 10101100000000000000000000000000
2020.02.04.20.19.04 : INSTRUCTION: 10011010010111100000100100
2020.02.04.20.19.04 : MASK: 11111100000000000000000000000000
2020.02.04.20.19.04 : OPCODE: 0
2020.02.04.20.19.04 : INSTRUCTION: 10101110100011111111111111110100
2020.02.04.20.19.04 : MASK: 11111100000000000000000000000000
2020.02.04.20.19.04 : OPCODE: 10101100000000000000000000000000
2020.02.04.20.19.04 : INSTRUCTION: 1100011000110000000100000
2020.02.04.20.19.04 : MASK: 11111100000000000000000000000000
2020.02.04.20.19.04 : OPCODE: 0
2020.02.04.20.19.04 : INSTRUCTION: 10101001001010100000100101
2020.02.04.20.19.04 : MASK: 11111100000000000000000000000000
2020.02.04.20.19.04 : OPCODE: 0
2020.02.04.20.19.04 : INSTRUCTION: 10101100011111111111111110111
2020.02.04.20.19.04 : MASK: 11111100000000000000000000000000
2020.02.04.20.19.04 : OPCODE: 10100000000000000000000000000
2020.02.04.20.19.04 : INSTRUCTION: 10001110110011011111111111110000
2020.02.04.20.19.04 : MASK: 11111100000000000000000000000000
2020.02.04.20.19.04 : OPCODE: 10001100000000000000000000000000
2020.02.04.20.27.04 : INSTRUCTION: 11001010111010000000100000
2020.02.04.20.27.04 : MASK: 11111000000000000000000000
2020.02.04.20.27.04 : OPCODE: 11001000000000000000000000
2020.02.04.20.27.04 : INSTRUCTION: 10001100111010010000000000010100
2020.02.04.20.27.04 : MASK: 11111000000000000000000000
2020.02.04.20.27.04 : OPCODE: 111000000000000000000000
2020.02.04.20.27.04 : INSTRUCTION: 10010101010010000000000000011
2020.02.04.20.27.04 : MASK: 11111000000000000000000000
2020.02.04.20.27.04 : OPCODE: 10101000000000000000000000
2020.02.04.20.27.04 : INSTRUCTION: 10001011011010100000100010
2020.02.04.20.27.04 : MASK: 11111000000000000000000000
2020.02.04.20.27.04 : OPCODE: 10001000000000000000000000
2020.02.04.20.27.04 : INSTRUCTION: 10101101101100110000000000100000
2020.02.04.20.27.04 : MASK: 11111000000000000000000000
2020.02.04.20.27.04 : OPCODE: 1101000000000000000000000
2020.02.04.20.27.04 : INSTRUCTION: 10011010010111100000100100
2020.02.04.20.27.04 : MASK: 11111000000000000000000000
2020.02.04.20.27.04 : OPCODE: 10011000000000000000000000
2020.02.04.20.27.04 : INSTRUCTION: 10101110100011111111111111110100
2020.02.04.20.27.04 : MASK: 11111000000000000000000000
2020.02.04.20.27.04 : OPCODE: 10100000000000000000000000
2020.02.04.20.27.04 : INSTRUCTION: 1100011000110000000100000
2020.02.04.20.27.04 : MASK: 11111000000000000000000000
2020.02.04.20.27.04 : OPCODE: 1100000000000000000000000
2020.02.04.20.27.04 : INSTRUCTION: 10101001001010100000100101
2020.02.04.20.27.04 : MASK: 11111000000000000000000000
2020.02.04.20.27.04 : OPCODE: 10101000000000000000000000
2020.02.04.20.27.04 : INSTRUCTION: 10101100011111111111111110111
2020.02.04.20.27.04 : MASK: 11111000000000000000000000
2020.02.04.20.27.04 : OPCODE: 1100000000000000000000000
2020.02.04.20.27.04 : INSTRUCTION: 10001110110011011111111111110000
2020.02.04.20.27.04 : MASK: 11111000000000000000000000
2020.02.04.20.27.04 : OPCODE: 10110000000000000000000000
2020.02.04.20.29.47 : INSTRUCTION: 11001010111010000000100000
2020.02.04.20.29.47 : MASK: 11111000000000000000000000
2020.02.04.20.29.47 : OPCODE: 11001000000000000000000000
2020.02.04.20.29.47 : INSTRUCTION: 10001100111010010000000000010100
2020.02.04.20.29.47 : MASK: 11111000000000000000000000
2020.02.04.20.29.47 : OPCODE: 111000000000000000000000
2020.02.04.20.29.47 : INSTRUCTION: 10010101010010000000000000011
2020.02.04.20.29.47 : MASK: 11111000000000000000000000
2020.02.04.20.29.47 : OPCODE: 10101000000000000000000000
2020.02.04.20.29.47 : INSTRUCTION: 10001011011010100000100010
2020.02.04.20.29.47 : MASK: 11111000000000000000000000
2020.02.04.20.29.47 : OPCODE: 10001000000000000000000000
2020.02.04.20.29.47 : INSTRUCTION: 10101101101100110000000000100000
2020.02.04.20.29.47 : MASK: 11111000000000000000000000
2020.02.04.20.29.47 : OPCODE: 1101000000000000000000000
2020.02.04.20.29.47 : INSTRUCTION: 10011010010111100000100100
2020.02.04.20.29.47 : MASK: 11111000000000000000000000
2020.02.04.20.29.47 : OPCODE: 10011000000000000000000000
2020.02.04.20.29.47 : INSTRUCTION: 10101110100011111111111111110100
2020.02.04.20.29.47 : MASK: 11111000000000000000000000
2020.02.04.20.29.47 : OPCODE: 10100000000000000000000000
2020.02.04.20.29.47 : INSTRUCTION: 1100011000110000000100000
2020.02.04.20.29.47 : MASK: 11111000000000000000000000
2020.02.04.20.29.47 : OPCODE: 1100000000000000000000000
2020.02.04.20.29.47 : INSTRUCTION: 10101001001010100000100101
2020.02.04.20.29.47 : MASK: 11111000000000000000000000
2020.02.04.20.29.47 : OPCODE: 10101000000000000000000000
2020.02.04.20.29.47 : INSTRUCTION: 10101100011111111111111110111
2020.02.04.20.29.47 : MASK: 11111000000000000000000000
2020.02.04.20.29.47 : OPCODE: 1100000000000000000000000
2020.02.04.20.29.47 : INSTRUCTION: 10001110110011011111111111110000
2020.02.04.20.29.47 : MASK: 11111000000000000000000000
2020.02.04.20.29.47 : OPCODE: 10110000000000000000000000
2020.02.04.20.37.10 : INSTRUCTION: 11001010111010000000100000
2020.02.04.20.37.10 : MASK: 1111100000000000000000000
2020.02.04.20.37.10 : OPCODE: 1001000000000000000000000
2020.02.04.20.37.10 : INSTRUCTION: 10001100111010010000000000010100
2020.02.04.20.37.10 : MASK: 1111100000000000000000000
2020.02.04.20.37.10 : OPCODE: 111000000000000000000000
2020.02.04.20.37.10 : INSTRUCTION: 10010101010010000000000000011
2020.02.04.20.37.10 : MASK: 1111100000000000000000000
2020.02.04.20.37.10 : OPCODE: 101000000000000000000000
2020.02.04.20.37.10 : INSTRUCTION: 10001011011010100000100010
2020.02.04.20.37.10 : MASK: 1111100000000000000000000
2020.02.04.20.37.10 : OPCODE: 1000000000000000000000
2020.02.04.20.37.10 : INSTRUCTION: 10101101101100110000000000100000
2020.02.04.20.37.10 : MASK: 1111100000000000000000000
2020.02.04.20.37.10 : OPCODE: 1101100000000000000000000
2020.02.04.20.37.10 : INSTRUCTION: 10011010010111100000100100
2020.02.04.20.37.10 : MASK: 1111100000000000000000000
2020.02.04.20.37.10 : OPCODE: 11000000000000000000000
2020.02.04.20.37.10 : INSTRUCTION: 10101110100011111111111111110100
2020.02.04.20.37.10 : MASK: 1111100000000000000000000
2020.02.04.20.37.10 : OPCODE: 100000000000000000000000
2020.02.04.20.37.10 : INSTRUCTION: 1100011000110000000100000
2020.02.04.20.37.10 : MASK: 1111100000000000000000000
2020.02.04.20.37.10 : OPCODE: 1100000000000000000000000
2020.02.04.20.37.10 : INSTRUCTION: 10101001001010100000100101
2020.02.04.20.37.10 : MASK: 1111100000000000000000000
2020.02.04.20.37.10 : OPCODE: 101000000000000000000000
2020.02.04.20.37.10 : INSTRUCTION: 10101100011111111111111110111
2020.02.04.20.37.10 : MASK: 1111100000000000000000000
2020.02.04.20.37.10 : OPCODE: 1100000000000000000000000
2020.02.04.20.37.10 : INSTRUCTION: 10001110110011011111111111110000
2020.02.04.20.37.10 : MASK: 1111100000000000000000000
2020.02.04.20.37.10 : OPCODE: 110000000000000000000000
2020.02.04.20.37.25 : INSTRUCTION: 11001010111010000000100000
2020.02.04.20.37.25 : MASK: 1111100000000000000000000
2020.02.04.20.37.25 : OPCODE: 1001000000000000000000000
2020.02.04.20.37.25 : INSTRUCTION: 10001100111010010000000000010100
2020.02.04.20.37.25 : MASK: 1111100000000000000000000
2020.02.04.20.37.25 : OPCODE: 111000000000000000000000
2020.02.04.20.37.25 : INSTRUCTION: 10010101010010000000000000011
2020.02.04.20.37.25 : MASK: 1111100000000000000000000
2020.02.04.20.37.25 : OPCODE: 101000000000000000000000
2020.02.04.20.37.25 : INSTRUCTION: 10001011011010100000100010
2020.02.04.20.37.25 : MASK: 1111100000000000000000000
2020.02.04.20.37.25 : OPCODE: 1000000000000000000000
2020.02.04.20.37.25 : INSTRUCTION: 10101101101100110000000000100000
2020.02.04.20.37.25 : MASK: 1111100000000000000000000
2020.02.04.20.37.25 : OPCODE: 1101100000000000000000000
2020.02.04.20.37.25 : INSTRUCTION: 10011010010111100000100100
2020.02.04.20.37.25 : MASK: 1111100000000000000000000
2020.02.04.20.37.25 : OPCODE: 11000000000000000000000
2020.02.04.20.37.25 : INSTRUCTION: 10101110100011111111111111110100
2020.02.04.20.37.25 : MASK: 1111100000000000000000000
2020.02.04.20.37.25 : OPCODE: 100000000000000000000000
2020.02.04.20.37.25 : INSTRUCTION: 1100011000110000000100000
2020.02.04.20.37.25 : MASK: 1111100000000000000000000
2020.02.04.20.37.25 : OPCODE: 1100000000000000000000000
2020.02.04.20.37.25 : INSTRUCTION: 10101001001010100000100101
2020.02.04.20.37.25 : MASK: 1111100000000000000000000
2020.02.04.20.37.25 : OPCODE: 101000000000000000000000
2020.02.04.20.37.25 : INSTRUCTION: 10101100011111111111111110111
2020.02.04.20.37.25 : MASK: 1111100000000000000000000
2020.02.04.20.37.25 : OPCODE: 1100000000000000000000000
2020.02.04.20.37.25 : INSTRUCTION: 10001110110011011111111111110000
2020.02.04.20.37.25 : MASK: 1111100000000000000000000
2020.02.04.20.37.25 : OPCODE: 110000000000000000000000
2020.02.04.20.37.45 : INSTRUCTION: 11001010111010000000100000
2020.02.04.20.37.45 : MASK: 111110000000000000000000
2020.02.04.20.37.45 : OPCODE: 1010000000000000000000
2020.02.04.20.37.45 : INSTRUCTION: 10001100111010010000000000010100
2020.02.04.20.37.45 : MASK: 111110000000000000000000
2020.02.04.20.37.45 : OPCODE: 111010000000000000000000
2020.02.04.20.37.45 : INSTRUCTION: 10010101010010000000000000011
2020.02.04.20.37.45 : MASK: 111110000000000000000000
2020.02.04.20.37.45 : OPCODE: 101010000000000000000000
2020.02.04.20.37.45 : INSTRUCTION: 10001011011010100000100010
2020.02.04.20.37.45 : MASK: 111110000000000000000000
2020.02.04.20.37.45 : OPCODE: 1010000000000000000000
2020.02.04.20.37.45 : INSTRUCTION: 10101101101100110000000000100000
2020.02.04.20.37.45 : MASK: 111110000000000000000000
2020.02.04.20.37.45 : OPCODE: 101100000000000000000000
2020.02.04.20.37.45 : INSTRUCTION: 10011010010111100000100100
2020.02.04.20.37.45 : MASK: 111110000000000000000000
2020.02.04.20.37.45 : OPCODE: 11010000000000000000000
2020.02.04.20.37.45 : INSTRUCTION: 10101110100011111111111111110100
2020.02.04.20.37.45 : MASK: 111110000000000000000000
2020.02.04.20.37.45 : OPCODE: 100010000000000000000000
2020.02.04.20.37.45 : INSTRUCTION: 1100011000110000000100000
2020.02.04.20.37.45 : MASK: 111110000000000000000000
2020.02.04.20.37.45 : OPCODE: 100010000000000000000000
2020.02.04.20.37.45 : INSTRUCTION: 10101001001010100000100101
2020.02.04.20.37.45 : MASK: 111110000000000000000000
2020.02.04.20.37.45 : OPCODE: 101000000000000000000000
2020.02.04.20.37.45 : INSTRUCTION: 10101100011111111111111110111
2020.02.04.20.37.45 : MASK: 111110000000000000000000
2020.02.04.20.37.45 : OPCODE: 100010000000000000000000
2020.02.04.20.37.45 : INSTRUCTION: 10001110110011011111111111110000
2020.02.04.20.37.45 : MASK: 111110000000000000000000
2020.02.04.20.37.45 : OPCODE: 110010000000000000000000
2020.02.04.20.49.49 : INSTRUCTION: 11001010111010000000100000
2020.02.04.20.49.49 : MASK: 11111000000000000000000000
2020.02.04.20.49.49 : OPCODE: 11001000000000000000000000
2020.02.04.20.49.49 : INSTRUCTION: 10001100111010010000000000010100
2020.02.04.20.49.49 : MASK: 11111000000000000000000000
2020.02.04.20.49.49 : OPCODE: 111000000000000000000000
2020.02.04.20.49.49 : INSTRUCTION: 10010101010010000000000000011
2020.02.04.20.49.49 : MASK: 11111000000000000000000000
2020.02.04.20.49.49 : OPCODE: 10101000000000000000000000
2020.02.04.20.49.49 : INSTRUCTION: 10001011011010100000100010
2020.02.04.20.49.49 : MASK: 11111000000000000000000000
2020.02.04.20.49.49 : OPCODE: 10001000000000000000000000
2020.02.04.20.49.49 : INSTRUCTION: 10101101101100110000000000100000
2020.02.04.20.49.49 : MASK: 11111000000000000000000000
2020.02.04.20.49.49 : OPCODE: 1101000000000000000000000
2020.02.04.20.49.49 : INSTRUCTION: 10011010010111100000100100
2020.02.04.20.49.49 : MASK: 11111000000000000000000000
2020.02.04.20.49.49 : OPCODE: 10011000000000000000000000
2020.02.04.20.49.49 : INSTRUCTION: 10101110100011111111111111110100
2020.02.04.20.49.49 : MASK: 11111000000000000000000000
2020.02.04.20.49.49 : OPCODE: 10100000000000000000000000
2020.02.04.20.49.49 : INSTRUCTION: 1100011000110000000100000
2020.02.04.20.49.49 : MASK: 11111000000000000000000000
2020.02.04.20.49.49 : OPCODE: 1100000000000000000000000
2020.02.04.20.49.49 : INSTRUCTION: 10101001001010100000100101
2020.02.04.20.49.49 : MASK: 11111000000000000000000000
2020.02.04.20.49.49 : OPCODE: 10101000000000000000000000
2020.02.04.20.49.49 : INSTRUCTION: 10101100011111111111111110111
2020.02.04.20.49.49 : MASK: 11111000000000000000000000
2020.02.04.20.49.49 : OPCODE: 1100000000000000000000000
2020.02.04.20.49.49 : INSTRUCTION: 10001110110011011111111111110000
2020.02.04.20.49.49 : MASK: 11111000000000000000000000
2020.02.04.20.49.49 : OPCODE: 10110000000000000000000000
2020.02.06.23.13.55 : HEX OP CODE: -1946157056
2020.02.06.23.13.55 : WORD OP CODE: lw
2020.02.06.23.13.55 : HEX OP CODE: 268435456
2020.02.06.23.13.55 : WORD OP CODE: beq
2020.02.06.23.13.55 : HEX OP CODE: -1409286144
2020.02.06.23.13.55 : WORD OP CODE: sw
2020.02.06.23.13.55 : HEX OP CODE: -1409286144
2020.02.06.23.13.55 : WORD OP CODE: sw
2020.02.06.23.13.55 : HEX OP CODE: 335544320
2020.02.06.23.13.55 : WORD OP CODE: bne
2020.02.06.23.13.55 : HEX OP CODE: -1946157056
2020.02.06.23.13.55 : WORD OP CODE: lw
2020.02.11.22.32.17 : 
2020.02.11.22.32.17 : 
2020.02.11.22.32.17 : 
2020.02.11.22.32.17 : 
2020.02.11.22.32.17 : 
2020.02.11.22.32.17 : 
2020.02.11.22.32.17 : 
2020.02.11.22.32.17 : 
2020.02.11.22.32.17 : 
2020.02.11.22.32.17 : 
2020.02.11.22.32.17 : 
2020.02.11.22.32.17 : 
2020.02.11.22.32.17 : 
2020.02.11.22.32.17 : 
2020.02.11.22.32.17 : 
2020.02.11.22.32.17 : 
2020.02.11.22.32.17 : 
2020.02.11.22.32.17 : 
2020.02.11.22.32.17 : 
2020.02.11.22.32.17 : 
2020.02.11.22.32.17 : 
2020.02.11.22.32.17 : 
2020.02.11.22.32.17 : 
2020.02.11.22.32.17 : 
2020.02.11.22.32.17 : 
2020.02.11.22.32.17 : 
2020.02.11.22.32.17 : 
2020.02.11.22.32.17 : 
2020.02.11.22.32.17 : 
2020.02.11.22.32.17 : 
2020.02.11.22.32.17 : 
2020.02.11.22.32.17 : 
2020.02.11.22.32.17 : 
2020.02.11.22.32.17 : 
2020.02.11.22.32.17 : 
2020.02.11.22.32.17 : 
2020.02.11.22.32.17 : 
2020.02.11.22.32.17 : 
2020.02.11.22.32.17 : 
2020.02.11.22.32.17 : 
2020.02.11.22.32.17 : 
2020.02.11.22.32.17 : 
2020.02.11.22.32.17 : 
2020.02.11.22.32.17 : 
2020.02.11.22.32.17 : 
2020.02.11.22.32.17 : 
2020.02.11.22.32.17 : 
2020.02.11.22.32.17 : 
2020.02.11.22.32.17 : 
2020.02.11.22.32.17 : 
2020.02.11.22.32.17 : 
2020.02.11.22.32.17 : 
2020.02.11.22.32.17 : 
2020.02.11.22.32.17 : 
2020.02.11.22.32.17 : 
2020.02.11.22.32.17 : 
2020.02.11.22.32.17 : 
2020.02.11.22.32.17 : 
2020.02.11.22.32.17 : 
2020.02.11.22.32.17 : 
2020.02.11.22.36.38 : 
2020.02.11.22.36.38 : 
2020.02.11.22.36.38 : 
2020.02.11.22.36.38 : 
2020.02.11.22.36.38 : 
2020.02.11.22.36.39 : 
2020.02.11.22.36.39 : 
2020.02.11.22.36.39 : 
2020.02.11.22.36.39 : 
2020.02.11.22.36.39 : 
2020.02.11.22.36.39 : 
2020.02.11.22.36.39 : 
2020.02.11.22.36.39 : 
2020.02.11.22.36.39 : 
2020.02.11.22.36.39 : 
2020.02.11.22.36.39 : 
2020.02.11.22.36.39 : 
2020.02.11.22.40.31 : 
2020.02.11.22.40.31 : 
2020.02.11.22.40.31 : 
2020.02.11.22.40.31 : 
2020.02.11.22.40.31 : 
2020.02.11.22.40.31 : 
2020.02.11.22.40.31 : 
2020.02.11.22.40.31 : 
2020.02.11.22.40.31 : 
2020.02.11.22.40.31 : 
2020.02.11.22.40.31 : 
2020.02.11.22.40.31 : 
2020.02.11.22.40.31 : 
2020.02.11.22.40.31 : 
2020.02.11.22.40.31 : 
2020.02.11.22.40.31 : 
2020.02.11.22.40.31 : 
